-0.226334	0
0.190081	0.00172414
0.554773	0.00344828
0.897965	0.00517241
1.20613	0.00689655
1.34543	0.00862069
1.54556	0.0103448
1.61083	0.012069
1.67685	0.0137931
1.69013	0.0155172
1.7262	0.0172414
1.76913	0.0189655
1.77609	0.0206897
1.79827	0.0224138
1.87425	0.0241379
1.89609	0.0258621
1.93752	0.0275862
1.94834	0.0293103
2.01464	0.0310345
2.114	0.0327586
2.13581	0.0344828
2.1547	0.0362069
2.18258	0.037931
2.18621	0.0396552
2.21884	0.0413793
2.231	0.0431034
2.23207	0.0448276
2.23848	0.0465517
2.27317	0.0482759
2.27642	0.05
2.31321	0.0517241
2.38288	0.0534483
2.40432	0.0551724
2.40494	0.0568966
2.41653	0.0586207
2.45886	0.0603448
2.47416	0.062069
2.47911	0.0637931
2.49598	0.0655172
2.51081	0.0672414
2.51554	0.0689655
2.51767	0.0706897
2.54119	0.0724138
2.57105	0.0741379
2.58759	0.0758621
2.60991	0.0775862
2.61152	0.0835386
2.63056	0.0852627
2.63114	0.0912151
2.66101	0.0929392
2.70763	0.0946634
2.72322	0.0963875
2.74526	0.0981117
2.74734	0.0998358
2.78355	0.10156
2.81208	0.103284
2.83407	0.105008
2.85908	0.106732
2.85953	0.108456
2.87842	0.110181
2.87885	0.111905
2.90105	0.113629
2.94999	0.115353
2.97974	0.117077
2.98128	0.118801
2.98206	0.120525
3.02152	0.12225
3.02882	0.123974
3.03369	0.125698
3.03993	0.127422
3.04554	0.133374
3.05364	0.135099
3.06558	0.136823
3.08828	0.142775
3.08855	0.144499
3.10403	0.146223
3.12759	0.147947
3.13525	0.149672
3.13874	0.151396
3.15371	0.15312
3.159	0.154844
3.19104	0.156568
3.1935	0.158292
3.20202	0.160016
3.20501	0.161741
3.20518	0.163465
3.21161	0.165189
3.21934	0.171141
3.2194	0.172865
3.23593	0.174589
3.26666	0.176314
3.27394	0.178038
3.28072	0.179762
3.31321	0.181486
3.31506	0.18321
3.32298	0.184934
3.3246	0.186658
3.34283	0.188383
3.346	0.190107
3.34615	0.191831
3.36481	0.193555
3.3679	0.195279
3.37237	0.201232
3.39185	0.202956
3.41818	0.20468
3.41852	0.206404
3.42041	0.208128
3.42362	0.209852
3.42483	0.215805
3.42494	0.217529
3.43788	0.219253
3.44279	0.220977
3.45681	0.222701
3.45839	0.224425
3.47003	0.226149
3.47091	0.227874
3.49556	0.229598
3.5049	0.231322
3.52367	0.233046
3.53754	0.23477
3.54172	0.236494
3.5495	0.238218
3.54975	0.239943
3.5519	0.241667
3.5607	0.243391
3.5634	0.245115
3.56662	0.246839
3.5682	0.248563
3.57013	0.250287
3.57148	0.252011
3.57511	0.253736
3.57576	0.25546
3.58444	0.261412
3.5856	0.263136
3.58629	0.26486
3.59083	0.270813
3.59216	0.272537
3.60223	0.274261
3.60603	0.275985
3.61036	0.277709
3.61155	0.279433
3.61454	0.281158
3.62512	0.282882
3.62703	0.284606
3.65783	0.28633
3.6638	0.292282
3.67064	0.294007
3.67406	0.295731
3.69767	0.301683
3.70958	0.303407
3.71471	0.305131
3.7154	0.306856
3.72936	0.30858
3.72948	0.314532
3.73074	0.316256
3.73099	0.31798
3.73254	0.319704
3.73939	0.321429
3.74602	0.323153
3.74911	0.329105
3.75727	0.330829
3.77279	0.332553
3.78374	0.334278
3.78796	0.336002
3.78874	0.341954
3.79404	0.343678
3.79429	0.345402
3.803	0.347126
3.80348	0.348851
3.81245	0.350575
3.83084	0.352299
3.83375	0.354023
3.83515	0.355747
3.83974	0.3617
3.84208	0.363424
3.84817	0.369376
3.85923	0.3711
3.86075	0.372824
3.87416	0.374548
3.88698	0.376273
3.92448	0.382225
3.92612	0.383949
3.93077	0.385673
3.94494	0.387397
3.94725	0.389122
3.94746	0.390846
3.95203	0.39257
3.95778	0.394294
3.95878	0.400246
3.95944	0.406199
3.97808	0.412151
3.99082	0.413875
3.99246	0.419828
3.99827	0.421552
4.01232	0.423276
4.01258	0.425
4.01738	0.426724
4.02645	0.428448
4.03194	0.434401
4.049	0.436125
4.07491	0.437849
4.08496	0.439573
4.08721	0.441297
4.08771	0.443021
4.08832	0.448974
4.09623	0.450698
4.10251	0.452422
4.10484	0.454146
4.11541	0.45587
4.12058	0.457594
4.1293	0.459319
4.13076	0.461043
4.1312	0.466995
4.13347	0.468719
4.13548	0.470443
4.13552	0.472167
4.14958	0.473892
4.15449	0.475616
4.15704	0.47734
4.15764	0.483292
4.16195	0.489245
4.16367	0.490969
4.16514	0.492693
4.16582	0.494417
4.1671	0.496141
4.17528	0.497865
4.1761	0.503818
4.18212	0.505542
4.18856	0.507266
4.19415	0.50899
4.20375	0.510714
4.20748	0.512438
4.22026	0.514163
4.22941	0.515887
4.24226	0.517611
4.2454	0.519335
4.25104	0.521059
4.25516	0.522783
4.26308	0.524507
4.26695	0.526232
4.27193	0.527956
4.28196	0.52968
4.29025	0.531404
4.29221	0.537356
4.29808	0.543309
4.29963	0.545033
4.304	0.546757
4.30448	0.548481
4.30565	0.554433
4.30905	0.556158
4.31106	0.557882
4.31933	0.559606
4.32344	0.56133
4.32515	0.563054
4.34292	0.569007
4.34485	0.570731
4.34603	0.572455
4.34833	0.574179
4.35987	0.575903
4.37176	0.581856
4.39423	0.58358
4.40203	0.585304
4.42592	0.591256
4.43335	0.59298
4.43683	0.594704
4.4392	0.596429
4.44052	0.598153
4.47806	0.599877
4.48784	0.605829
4.49454	0.611782
4.49587	0.613506
4.50255	0.61523
4.50909	0.621182
4.51629	0.622906
4.51706	0.624631
4.52377	0.630583
4.53237	0.636535
4.55346	0.638259
4.56332	0.639984
4.57978	0.645936
4.59789	0.651888
4.5986	0.653612
4.60803	0.659565
4.61467	0.661289
4.6231	0.663013
4.62674	0.664737
4.63311	0.67069
4.64354	0.672414
4.66008	0.674138
4.6672	0.68009
4.67396	0.681814
4.69528	0.683539
4.70026	0.689491
4.70695	0.695443
4.73734	0.697167
4.73857	0.698892
4.7392	0.700616
4.7573	0.70234
4.75946	0.708292
4.75951	0.710016
4.76245	0.711741
4.76411	0.713465
4.76794	0.715189
4.76798	0.721141
4.78409	0.722865
4.79479	0.728818
4.79762	0.730542
4.79839	0.732266
4.80355	0.73399
4.80624	0.739943
4.8289	0.745895
4.83008	0.747619
4.83868	0.749343
4.84454	0.755296
4.85105	0.761248
4.85985	0.762972
4.86041	0.768924
4.88743	0.770649
4.89332	0.772373
4.89943	0.778325
4.90008	0.780049
4.91305	0.786002
4.92494	0.787726
4.92943	0.78945
4.94202	0.791174
4.94976	0.792898
4.95276	0.794622
4.95422	0.796346
4.95425	0.798071
4.96081	0.804023
4.97422	0.805747
4.97423	0.807471
5.00231	0.809195
5.03683	0.81092
5.04689	0.812644
5.05498	0.818596
5.0612	0.82032
5.08205	0.822044
5.13117	0.827997
5.1335	0.829721
5.13756	0.831445
5.15663	0.837397
5.20514	0.839122
5.21974	0.845074
5.22974	0.846798
5.23944	0.85275
5.27558	0.858703
5.27985	0.860427
5.29093	0.866379
5.32845	0.872332
5.34512	0.878284
5.35676	0.884236
5.38357	0.890189
5.38381	0.891913
5.39237	0.893637
5.40393	0.899589
5.44421	0.905542
5.47254	0.911494
5.51434	0.917447
5.5356	0.923399
5.77057	0.929351
5.8197	0.935304
5.8203	0.941256
6.01465	0.94298
6.01971	0.944704
6.14375	0.950657
6.16432	0.956609
6.23303	0.962562
6.33683	0.968514
6.35384	0.974466
6.4066	0.97619
6.63819	0.982143
6.97235	0.988095
7.11642	0.994048
